{
  "languages": {
    "en": {
      "id": 1,
      "lang": "English"
    },
    "de": {
      "id": 2,
      "lang": "German"
    },
    "fr": {
      "id": 3,
      "lang": "French"
    },
    "sp": {
      "id": 4,
      "lang": "Spanish"
    },
    "pl": {
      "id": 5,
      "lang": "Polish"
    },
    "trk": {
      "id": 7,
      "lang": "Turkish"
    },
    "slv": {
      "id": 8,
      "lang": "Slovak"
    },
    "hu": {
      "id": 9,
      "lang": "Hungarian"
    }
  },
  "helpMsgs": [{
    "id": 0,
    "title": "Introduction",
    "msg": "<b>An Installer and uninstaller for 40+ 'Tweaks' For the Mazda MZD Infotainment System</b> \n Mazda 2 (DJ), Mazda 3 (BM), Mazda 6 (GJ), Mazda CX-3 (DK), Mazda CX-5 (KE), Mazda MX-5 Roadster (ND) and new 2017 Mazda CX-9 (TC)<br>Fiat Spider, Toyota ScionA<h5><b>What Is MZD-AIO-TI?</b></h5> My good friend Siutsch copied files from many different tweaks for his infotainment system and thought, it would be helpful if you could choose what tweaks you wanted to install or uninstall. He went on to develop a CMD based program to accomplish this and it worked well but had reached certain limitations and lacked that modern app feel.  I contacted Siutsch and proposed we make the next AIO desktop app style starting with the same tweaks from AIO v1.5.x that we all know and love. I went on to develop MZD-AIO-TI. \n\n##### I personallty tested all the tweaks in my 2016 Mazda3 FW:55.00.753A-NA\n\n##### I can offer no warranty but I did include every safety precaution I know about.\n\n###### **So please, be mindful when performing tweak installs.**  \n\nThis app will automatically update.\n\nThis program is free software: you can redistribute it and/or modify it under the terms of the GNU General Public License as published by the Free Software Foundation, either version 3 of the License, or (at your option) any later version.\n\nThis program is distributed in the hope that it will be useful, but WITHOUT ANY WARRANTY; without even the implied warranty of MERCHANTABILITY or FITNESS FOR A PARTICULAR PURPOSE. See the <a href='' onclick='externalLink(`copyleft`)'>Copyleft</a> Under The <a href='http://aio.trevelopment.win/gpl3' data-featherlight='ajax' data-featherlight-loading='<img src=\"files/img/gplv3.png\" alt=\"GPLv3\"><br><b>GNU GPLv3<br>LOADING....</b>'>GNU General Public License</a> for more details.",
    "t2": "",
    "msg2": ""
  }, {
    "id": 1,
    "title": "Tweaking",
    "msg": "<h3> All changes happen at your own risk! </h3>\n <b>Please understand that you can damage or brick your infotainment system running these tweaks! </b>\n Anyone who is unsure should leave it alone, ask someone with experience to help or ask in the <a href='' onclick=externalLink('mazda3revolution')>forum</a>.<h5> I am not responsible for damages that may incur from the use.</h5>Having said that, MZD-AIO-TI was built with Safety in mind so there are 3 compatibility levels: \n\n - <span class='hlpsfty twk-safe'>All</span>All Compatible - Compatible with all known firmware versions \n - <span class='hlpsfty twk-warn'>Warning</span> - Only compatible with specific firmware versions. \n - <span class='hlpsfty twk-development'>Development</span> - These are tweaks that are still under development, or do not work yet. <a href='' onclick=\"externalLink('AAIssueFix')\">Android Auto is getting bumped up to yellow very soon, maybe even green.</a>",
    "t2": "Compatible Firmware Versions:",
    "msg2": "  <H2 style='text-align:center'> **AIO IS COMPATIBLE WITH <br>ALL FW V55, V56, V58, AND V59 <br>UP TO V59.00.502** </H2><!--###### 55.00.650A/753A/760A / 56.00.521A-NA(NA N) \n\n###### 56.00.100A/230A/240B/511A/512A/513C/514A-ADR(4A N) \n\n###### 56.00.100A/230A/511A/512A/513A/513B/513C-EU \n\n###### 56.00.401A/403A-JP | 56.00.100A-CHN \n\n###### 58.00.250A-NA(NA N) / 58.00.251A-ADR(4A N) \n\n59.00.326A/330A/342A/442A/443C-ADR(4A N) \n\n###### 59.00.330A/441A/443A/446A/450A-NA(N NA) \n\n###### 59.00.330A/331A/443C/447A/449A-EU--> \n\n###### Only use with FirmWare Versions >= v55. DO NOT USE with V30/31/33 OR YOU WILL BRICK YOUR SYSTEM IT WILL FOREVER STAY LOOPING THE MAZDA BOOT LOGO!  \n\nTo Be Safe, For now AIO-TI Will Automatically Abort The Installation If No Compadible Firmware Version Is Found.  \n\nTo override this you have to be comfortable editing tweaks.sh directly, find the code that performs the firmware check and disable or add your version to the list of Compatible firmwares.  **Do This At Your Own Risk!**"
  }, {
    "id": 2,
    "title": "Reverting",
    "msg": "**Almost all the tweaks** can be uninstalled to revert to the system default state. <div class='w3-padding w3-right w3-third'>Default Background: <br><br><img style='cursor:pointer' data-featherlight='../background-images/default/default.png' src='../background-images/default/default.png' /></div>\n\n - AIO creates backups of all the files that it modifies and uses those backups when reverting.  If no backup is found for a file AIO will assume that it is the original file and move on.",
    "t2": "What Parts Of The System Are Not Reverted By AIO?",
    "msg2": "<h4><b>MZD-AIO-TI modifies some files in the system that cannot be reverted back using this app.</b></h4> \n\nThese first 3 files honestly should never be reverted because a mistake in one of these files will result in a unrecoverable bootloop.  They are only modified to disable the system from triggering a reboot on error and consequently creating a bootloop, so reverting them would put your system at a high risk. **Only the first time** the installer runs on your system they are backed up and modified.\n\n**DO NOT MODIFY ANY OF THESE FILES YOURSELF, YOU WILL BREAK YOUR SYSTEM IF YOU DO**\n\n- /jci/sm/sm.conf (Also modified by the Android Auto Tweak)\n- /jci/opera/opera_home/opera.ini \n- /jci/opera/opera_dir/userjs/fps.js\n\n##### These 2 tweaks have no uninstall because the system should have had these enabled by default.\n\n- Wifi (NA Region)\n- SSH_Bringback"
  }, {
    "id": 3,
    "title": "Troubleshooting",
    "msg": "Here are some common errors with ways to avoid them. \n#### If you keep hitting errors and/or hang ups:\n - The most common issue is a file system access error: resource busy or locked.  This occurs when a file or directory cannot be modified becasue it is open or being used by another program. While compiling, close all folders and documents especially files that are actively being used by MZD-AIO-TI (*ex: '_copy_to_usb'*)\n - If the installer does not start in the car try reformatting your USB drive as FAT32 and make sure all other USB devices are disconnected. It helps to turn bluetooth off too. NAV SD card should be left in.",
    "t2": "If you are having Video Player Issues",
    "msg2": " Try:\n\n- Place your videos in a folder named 'Movies'! \n\n- Use H264 video codec and MPEG-4 AAC audio codec in video files\n\n- Unplug all other USB drives, especially one, with many MP3s on it \n\n- Copy only one mp3 on your video USB drive \n\n- Copy only a few videos on your stick (you don't have to delete, rename to *._mp4 is OK too, so that they will not be found anymore) \n\n- Reboot your system and try to play a video right after that \n\n- Close the player and start again \n\n- If that doesn't work, then change the audio input.\n\n- Sometimes the first video selected lags or fails to start but pressing 'next' will sometimes start the next video.\n\n- Videos can be: MP4, AVI, FLV, WMV"
  }, {
    "id": 4,
    "title": "Issues",
    "msg": "\n- If there is not enough space free on the USB drive, you will hang up while copying to USB drive. This may happen if you are copying the swapfile on a drive that is almost full. I plan to fix this in a future version and have an error message pop up. \n- The Google Translator will try to translate certain parts of the code resulting in unexpected effects.  Try to use it to make a translated file with the translator to include in the next version so everything will still work when others use the language.",
    "t2": "Contributing",
    "msg2": "Though I did build this user interface, the more valuable aspects of this project are the tweak files.  Communities like <a href='' onclick=externalLink('mazda3revolution')>Mazda3Revolution Forum</a> out there and many developers laid down the groundwork from which this app is built and will continue to play an important role in future developments.\n\nIf you want to contributes a tweak, make sure you test your tweak thouroughly.  <br><br>If you are an expert in javascript or AngularJS then feel free to fix up my code or implement more of the ui 'The Angular Way'<br><br>This Project Is <a href='' onclick='externalLink(`copyleft`)'>Copyleft</a> Under The <a href='http://trevelopment.win/gpl3' data-featherlight='ajax' data-featherlight-loading='<img src=\"files/img/gplv3.png\" alt=\"GPLv3\"><br><b>GNU GPLv3<br>LOADING....</b>'><span class='icon-network'></span> GPLv3.0 License</a><br><br><a href='' onclick='externalLink(`github`)'><span class='icon-github2'></span> Github Repo</a>"
  }, {
    "id": 5,
    "title": "Tips & Tricks",
    "msg": "I will include some tips that go above and beyond this app. <br><br><a href='' onclick=externalLink('emulate')>Here are instructions how to run the CMU OS on your computer.</a><br><br><a href='' onclick=externalLink('cmu-autorun')>CMU-Autorun script for testing and recovery.</a><h4><em>How to run Android Auto from an SD card</em></h4><p>First of all uninstall Android Auto from your system.  Click the CMU-Autorun link above and download the repository (download button is on the top right next to \"<span class='icon-search4'></span>Find File\").  Copy the \"installer\" Folder to a blank USB drive to install the autorun script, this script will run every time the system boots up.   The script looks at the root of the SD card (if available) for a file called \"run.sh\" and if found, executes the file. After installing, copy the \"dryrun\" folder onto an SD card to test that the installation worked correctly. </p><p>AA - Copy the contents of the \"headunit\" folder to the root of a blank SD card, connect before booting up infotanment system, a message will show the first time to confirm it is running.  \nPlug in an Android Auto compatible phone to start.</p><p><b>Caveats:</b> The device with the headunit files must be connected before booting up the infotainment system to run. Once the headunit app is running it is loaded into memory and will silently run in the background, this means that even if you remove the SD card the headunit app will still be running in memory.  To stop the process you can do one of these things: <ol><li>Turn off the vehicle for about 5-10 minutes</li><li>Hard reset (hold: mute + nav + back)</li><li>Login SSH, enter command 'killall headunit'</li></ol></p><hr><p><h3>Want to run tweaks from an SD card?</h3>With autorun script installed copy tweak files to an SD card.  Rename \"tweaks.sh\" to \"run.sh\".  Boot up the system and tweaks will run as expected.  NOTE: I/O to SD card is slower than USB so installation will take longer.</p>",
    "t2": "Technical Talk",
    "msg2": "This app is built with <a href='' onclick='externalLink(`Electron`)' title='Electron'>Electron</a> and <a href='' onclick='externalLink(`AngularJS`)' title='AngularJS'>AngularJS</a>"
  }, {
    "id": 6,
    "title": "Help & Settings",
    "msg": "<h2>Help:</h2> \n<div class='w3-display-topright w3-margin-top'><a href='' id='aio-settings-btn' class='w3-btn' onclick='$(`#helpMenuTop`).toggleClass(`w3-hide`)' data-toggle='tooltip' data-placement='auto' title='MZD-AIO-TI Settings'><span class='icon-tools2'></span></a></div></div><div class='w3-panel'><div class='w3-twothird'>  For instructions on how to generate tweak files:</div><div class='w3-third w3-medium'><a class='w3-btn' ng-click='startTour()' id='tourBtn'><span class='icon-car2'></span> Take The Tour</a></div></div><div class='w3-panel'><div class='w3-twothird'><p>If you you hit an error <br>or a hang up you can:</p><p>Or you can:</p></div><div class='w3-third w3-medium'><a class='w3-btn' onclick='location.reload()'><span class='icon-refresh'></span> Reload App</a><a class='w3-btn' onclick='app.relaunch();app.exit()'><span class='icon-rocket3'></span> Relaunch App</a></div></div><div class='w3-panel'><div class='w3-twothird'><p>Love this app? Donating is a great way to show some love!:</p></div><div class='w3-third w3-medium'><a class='w3-btn' onclick='donate()'><span class='icon-money'></span> Donate</a></div></div><hr>",
    "t2": "",
    "msg2": ""
  }],
  "FAQs": {
    "title": "FAQ",
    "msg": "Frequently Asked Questions: ",
    "q1": "Is AIO compatible with my FW version?",
    "a1": "All compatible FW versions are listed in the 'Tweaking > Compatible Firmware Versions' section to the left in this help panel.  MZD-AIO-TI will read out your FW version at beginning of installation and show if it’s not compatible (or not yet tested) and you will abort the installation at this point, for Safety.",
    "q2": "How long does it take till the installation starts?",
    "a2": "Typically installation will start within 30 seconds to 2 minutes but it can take up to 10 minutes to begin.",
    "q3": "If something goes wrong, how can I help you to help me?",
    "a3": "During installation/uninstallation, a log file is created (AIO log.txt & MZD-AIO-TI info.txt) and some additional files will be copied on the USB drive.  Please make a ZIP file of them (complete root of USB drive) and send that to me or upload it somewhere (e.g. google drive or so) and send me the link.  Or you can download <a href='' onclick='externalLink(`thislink`)'>this tweak</a> that will copy some files from your MZD system to the USB drive and send those.",
    "q4": "Do I have to uninstall a tweak with AIO 1.x before installing it again?",
    "a4": "No, You can install every tweak with AIO, you never have to uninstall before. MZD-AIO-TI 2.x use the same tweaks AIO 1.x and compatibility was taken into consideration.",
    "q5": "How long does the installation/uninstallation take?",
    "a5": "Up to 10 minutes if every tweak has been selected (especially custom colors and speedcam-patch). performing a backup of your JCI folder can also take up to 10 minutes by itself so with everything up to 20 minutes.",
    "q6": "What if I want to revert my system but I forgot the tweaks I've installed?",
    "a6": "Uninstalling tweaks is safe in general, <s>if the uninstaller does not find a backup, it will copy the original files from USB drive over your original files of your MZD system BUT: YOU SHOULD NOT DO THIS FOR NEW AND UNKNOWN FW VERSIONS! See: 'Reverting' section of this help panel.</s>",
    "q7": "I want to change the order of the audio sources?",
    "a7": "Edit: /jci/gui/apps/system/js/systemApp.js on lines 624 - 637<br><br><b>* Be careful, the last line must not end with a comma, or you run in to boot loop! *</b><br> I am working on modifying the tweak to give the option to make your own order without manually modifying any files.",
    "q8": "Can I install AIO from an SD card?",
    "a8": "No. SD card slot in the car is ONLY for satnav maps. You need to use USB port in the car, so either USB stick or USB-SD card reader with your card in it.",
    "q9": "How do I a reboot the MZD system? ",
    "a9": "Press NAV+MUTE for 10 seconds.",
    "q10": "Can you write this or that tweak for us?",
    "a10": "I have improved on many of the existing tweaks and tweaks.sh as a whole but I do have a job and Developing the GUI for this app is a pretty hefty task. That being said, I do have ideas for future tweaks and I will take suggestions but no promises. You can contact me with the contact form on the bottom right of the app."
  },
  "tourMsgs": [{
    "id": 0,
    "msg": "<h1>Welcome to MZD-AIO-TI!</h1><br><h3>Mazda All In One Tweaks Installer</h3> An Installer And Uninstaller for 40+ 'Tweaks' For the Mazda MZD Infotainment System."
  }, {
    "id": 1,
    "msg": "These are the main Tweaks. You can choose to install or uninstall for each."
  }, {
    "id": 2,
    "msg": "This sidebar will list all the tweaks currently selected.  Here will appear extra options and you can also click any item in this list for help information."
  }, {
    "id": 3,
    "msg": "Additional actions such as backup jci folder & enable wifi for North American versions."
  }, {
    "id": 4,
    "msg": "These options can be restored to original state by selecting their default options."
  }, {
    "id": 5,
    "msg": "The menus have more help topics and links to resources and documentation."
  }, {
    "id": 6,
    "msg": "When all your tweaks have been selected, click this button to compile and go!"
  }, {
    "id": 7,
    "msg": "Copy the entire contents of the \"_copy_to_usb\" folder onto a blank, FAT32 format USB Flash Drive.  Plug the drive into the car's usb port, the installer will start automatically after a few minutes.  Remove any other USB devices but The NAV SD card should remain plugged into the car.  Turning off bluetooth and wifi help as well.  After the installation is complete the system will reboot, then you can remove the USB drive and your changes will be applied."
  }, {
    "id": 8,
    "msg": "For more information visit <a href='' onclick='externalLink(\"mazdatweaks\")' title='Mazda Tweaks'>MazdaTweaks.com!</a>"
  }],
  "popupMsgs": [{
    "id": 0,
    "msg": "Compiling... Please Wait..."
  }, {
    "id": 1,
    "msg": "Location of Tweak Files"
  }, {
    "id": 2,
    "msg": "<small>(For best results, erase USB drive prior to copying)</small>"
  }, {
    "id": 3,
    "msg": "Copy to USB Drive"
  }, {
    "id": 4,
    "msg": "Not Yet"
  }, {
    "id": 5,
    "msg": "Open USB Drive"
  }, {
    "id": 6,
    "msg": "USB drives Found"
  }, {
    "id": 7,
    "msg": "Do you want to copy files to USB drive"
  }, {
    "id": 8,
    "msg": "Choose a USB drive to copy files onto"
  }, {
    "id": 9,
    "msg": "No available USB drives found. Copy the entire contents of"
  }, {
    "id": 10,
    "msg": "onto a blank, FAT32 formatted USB flash drive"
  }, {
    "id": 11,
    "msg": "Copying to USB Drive"
  }, {
    "id": 12,
    "msg": "Please Wait"
  }, {
    "id": 13,
    "msg": "Unzipping Swapfile To"
  }, {
    "id": 14,
    "msg": "This takes a few minutes... be patient."
  }, {
    "id": 15,
    "msg": "Swapfile size is 1 GB."
  }, {
    "id": 16,
    "msg": "While you wait, here is some information"
  }, {
    "id": 17,
    "msg": "Start Over"
  }, {
    "id": 18,
    "msg": "View AIO Compile Log"
  }, {
    "id": 19,
    "msg": "Exit"
  }, {
    "id": 20,
    "msg": "Success!"
  }, {
    "id": 21,
    "msg": "Delete _copy_to_usb Folder After Copying"
  }],
  "mainOps": {
    "wifi": {
      "id": 0,
      "label": "Enable WIFI",
      "safetylvl": "safe",
      "toolTip": "<h5>WIFI </h5>Enables WIFI for North America and Japan Regions"
    },
    "backup": {
      "id": 1,
      "label": "Backup JCI Folder",
      "safetylvl": "safe",
      "toolTip": "<h5>Backup JCI </h5>Do backup of JCI folder before installing tweaks."
    },
    "background": {
      "id": 2,
      "label": "Background Image",
      "safetylvl": "safe",
      "toolTip": "<h5>Background </h5>Change your Infotainment background to your own custom image. Supported image formats are: jpg, jpeg, and png (any size). Note: If single img is chosen, the image will be resized to 800px x 480px <b>BUT NOT CROPPED</b> and converted to .png format.  To change the background image back to original, choose 'Default Background.",
      "img": "cic.jpg"
    },
    "colors": {
      "id": 3,
      "label": "Custom Infotainment Colors",
      "safetylvl": "safe",
      "toolTip": "<h5>Custom Color Schemes: </h5>Changes your Infotainment color scheme from Red (default) to one of the following colors:  <ul><li>Blue</li> <li>Green</li> <li>Orange</li> <li>Pink</li> <li>Purple</li> <li>Silver</li> <li>Yellow</li> <li>Smooth Red </li></ul> <h5>Themes: Themes only replace the main menu coins.  When installed over a color scheme, the custom colors will remain with the theme. Included Themes:<ul><li>carOS</li> <li>Storm Troopers</li> <li>Poker</li> <li>Mazda Logos</li> <li>Floating Logo</li> <li>X-Men</li></ul>  <br>PROTIP: Delete all the images that you do not want to change. It can be as little as deleting one folder or as much as deleting every image except one.  ",
      "toolTip2": "<h5><b>The Custom Theme Option:</b> </h5>Use any theme designed for the MZD Infotainment System or easily apply your own Custom Made Theme. <br><li>To use any theme: download and unzip the theme</li> <li>Import the <code>config/jci/</code> folder from the theme into AIO.</li><br>NOTE: Using This Method Will Copy Only .png Files For Themes<h5><b>Using Your Own Custom Made Theme:</b> </h5> <li><b>If no theme is chosen:</b> a folder will be generated here: <code>_copy_to_usb/config/color-schemes/theme/jci/</code></li> <li>After compiling tweaks, copy your files into the generated jci folder <b>in the same directory location of the images you want to replace.<div class='warning'>WARNING: WHEN USING THIS METHOD EVERYTHING IN THE JCI FOLDER WILL BE COPIED ONTO YOUR SYSTEM IN THE SAME LOCATION.  USE RESPONSIBLY.</div>",
      "img": "carOS.png"
    },
    "sshbringback": {
      "id": 4,
      "label": "Install SSH_bringback",
      "safetylvl": "safe",
      "toolTip": "<h5>SSH_bringback </h5>**No removing possible!** With FW 56.00.511+ Mazda has removed SSH access.  With SSH_bringback this will be reinstalled."
    },
    "sdcid": {
      "id": 5,
      "label": "SD CID",
      "safetylvl": "safe",
      "toolTip": "<h5>SD CID </h5>Gets the CID from the Nav SD card if available."
    },
    "backgroundrotator": {
      "id": 6,
      "label": "Background Rotator",
      "btntxt": "Join Images",
      "button": "Click To Join Images For Your Background To Rotate Through",
      "safetylvl": "safe",
      "toolTip": "<h5>Background Rotator Tweak.  </h5>Cycles through some Backgrounds showing for a variable number of seconds each. Using more than about 40 backgrounds can start to cause some system lagging.  To Revert back to a single background uninstall this tweak."
    },
    "retain": {
      "id": 7,
      "label": "Copy Backups",
      "testlabel": "Test Backups",
      "skipconfirm": "Skip Confirmation",
      "safetylvl": "safe",
      "toolTip": "<h5>Retrieve CMU Data</h5><p>Dump diagnostic files from the CMU to the USB Drive.  Cleans out error files and core dumps from the system.</p><h5>Skip Confirmation</h5><p>Allows for the installation to run without prompting for confirmation to begin the install. Mainly this is used for recovering when the touchscreen is not responding.  </p><h5>Copy Backups:</h5> <p> Copy original backups of modified system files, for safe keeping. </p><h5>Test Backups:</h5> <p>Some tweaks have before and after copies of the files modified during the installation.  If you like that kind of thing they will be copied to your-usb/bakups/test/.</p>"
    },
    "mainmenu": {
      "id": 8,
      "label": "Main Menu Tweaks",
      "safetylvl": "safe",
      "toolTip": "<h5>Main Menu Tweaks </h5>   <br><ul><li><h5>Alternative Main Menu Layouts</h5><ul><li><h4>'Star Points' Layout (A & B)</h4></li>  <li><h4>'Inverted' Layout</h4></li></ul></li>  <li><h5>3D Main Menu Label</h5></li>  <li><h5>Hide Main Menu Ellipse</h5></li> <li><h5>Smaller Main Menu 'Coins'</h5></li></ul>",
      "img": "Alt-layouts.jpg"
    },
    "uistyle": {
      "id": 9,
      "label": "Text Colors",
      "safetylvl": "safe",
      "toolTip": "<h4>User Interface Text Style Tweaks</h4> Customize Your User Interface Style and Text Colors: <br> <ul><li>Song Title</li>  <li>Artist & Album</li>  <li>Radio Station</li>  <li>List Item & Disabled List Item</li>  <li>Text Shadow</li></ul>"
    },
    "offscreenbg": {
      "id": 10,
      "label": "Off Screen Background",
      "btntxt": "Off Screen Default",
      "safetylvl": "safe",
      "toolTip": "<h5>Off Screen Background.  </h5>Background Image when \"Turn Display Off and Show Clock\" is chosen in the Settings menu.  Also shown during system shutdown."
    }
  },
  "menu": {
    "save": {
      "menuId": "0",
      "label": "Save",
      "toolTip": "Save Current Configuration."
    },
    "load": {
      "menuId": "1",
      "label": "Load",
      "toolTip": "Load Last Saved Configuration"
    },
    "tour": {
      "menuId": "2",
      "label": "Tour",
      "toolTip": "Take a Tour of MZD-AIO-TI"
    },
    "lastcompilelog": {
      "menuId": "3",
      "label": "Last Compile Log",
      "toolTip": "MZD_LOG"
    },
    "installall": {
      "menuId": "4",
      "label": "Install All",
      "toolTip": "Install All Except: Android Auto and Castscreen."
    },
    "uninstallall": {
      "menuId": "5",
      "label": "Uninstall All",
      "toolTip": "Uninstall All Tweaks."
    },
    "resetoptions": {
      "menuId": "6",
      "label": "Reset Options",
      "toolTip": "Reset Checked Options."
    },
    "reloadapp": {
      "menuId": "17",
      "label": "Reload App",
      "toolTip": "Reload the app."
    },
    "copytousb": {
      "menuId": "8",
      "label": "_copy_to_usb",
      "toolTip": "Open _copy_to_usb Folder"
    },
    "help": {
      "menuId": "9",
      "label": "Help",
      "toolTip": "Click tweak name for help."
    },
    "install": {
      "menuId": "10",
      "label": "Install"
    },
    "uninstall": {
      "menuId": "11",
      "label": "Uninstall"
    },
    "languages": {
      "menuId": "12",
      "label": "Languages"
    },
    "close": {
      "menuId": "13",
      "label": "Close"
    },
    "clickforhelp": {
      "menuId": "14",
      "label": "Click For Help"
    },
    "tweakstoinstall": {
      "menuId": "15",
      "label": "Tweaks To Install"
    },
    "file": {
      "menuId": "18",
      "label": "File"
    },
    "window": {
      "menuId": "19",
      "label": "Window"
    },
    "download": {
      "menuId": "20",
      "label": "Download"
    },
    "fullscreen": {
      "menuId": "20",
      "label": "Fullscreen"
    },
    "translator": {
      "menuId": "21",
      "label": "Translator"
    },
    "dlcolors": {
      "menuId": "22",
      "label": "Download Color Scheme Files"
    },
    "dlspeedcam": {
      "menuId": "22",
      "label": "Download Speedcam Patch Files"
    },
    "helppanel": {
      "menuId": "23",
      "label": "Help Panel"
    },
    "changelog": {
      "menuId": "24",
      "label": "Changelog"
    },
    "start": {
      "menuId": "16",
      "label": "Start Compilation",
      "toolTip": "<h1>Ready?</h1> <b>Start The Compilation!</b>"
    },
    "centerwindow": {
      "menuId": "17",
      "label": "Center Window",
      "toolTip": "Reset Window Size and Position"
    }
  },
  "imgOps": [{
    "id": 0,
    "label": "Join multiple images for your infotainment background"
  }, {
    "id": 1,
    "label": "Select up to 40, 480px X 800px Images (Each Image will be resized to 480x800). Background Rotator Will Show Each Background For X Seconds (Max 300 Seconds = 5 Minutes per img)."
  }, {
    "id": 2,
    "label": "Drag images to change order."
  }, {
    "id": 3,
    "label": "images selected"
  }, {
    "id": 4,
    "label": "You need to choose some images to join (Each will be resized to height: 480px, width: 800px) or "
  }, {
    "id": 5,
    "label": "Use Your Own Joined Image (No Resize)"
  }, {
    "id": 6,
    "label": "This image wil replace your infotainment background."
  }, {
    "id": 7,
    "label": "Save Image As"
  }, {
    "id": 8,
    "label": "Make Another"
  }, {
    "id": 9,
    "label": "Right-click > Save Image saves a copy of background.png to your downloads folder."
  }, {
    "id": 10,
    "label": "Minutes"
  }, {
    "id": 11,
    "label": "Select Images"
  }, {
    "id": 12,
    "label": "Images"
  }],
  "translatorWindow": [{
    "label": "Language Translator"
  }, {
    "label": "Reset to Default"
  }, {
    "label": "Enter Language Name (file will save as"
  }, {
    "label": "in your 'documents' folder"
  }, {
    "label": "Email translated files to"
  }, {
    "label": "Pull Request"
  }, {
    "label": "loading"
  }, {
    "label": "Saved in 'Documents'"
  }, {
    "label": "Show In Explorer"
  }, {
    "label": "Load File"
  }, {
    "label": "This section was designed for easily translating this app into many languages."
  }, {
    "label": "Choose a translation file to edit"
  }, {
    "label": "Enter name of the translated language"
  }, {
    "label": "BACK"
  }, {
    "label": "Save (To Documents)."
  }, {
    "label": "Auto-Save"
  }],
  "colors": {
    "red": {
      "id": 0,
      "label": "Red (Default)"
    },
    "blue": {
      "id": 1,
      "label": "Blue"
    },
    "green": {
      "id": 2,
      "label": "Green"
    },
    "silver": {
      "id": 3,
      "label": "Silver"
    },
    "pink": {
      "id": 4,
      "label": "Pink"
    },
    "purple": {
      "id": 5,
      "label": "Purple"
    },
    "orange": {
      "id": 6,
      "label": "Orange"
    },
    "yellow": {
      "id": 7,
      "label": "Yellow"
    },
    "smoothred": {
      "id": 8,
      "label": "Smooth Red"
    },
    "lightskyblue": {
      "id": 9,
      "label": "Smooth Azure"
    },
    "smoothviolet": {
      "id": 10,
      "label": "Smooth Violet"
    },
    "caros": {
      "id": 11,
      "label": "CarOS"
    },
    "stormtroopers": {
      "id": 12,
      "label": "Storm Troopers"
    },
    "poker": {
      "id": 13,
      "label": "Poker"
    },
    "mazdalogos": {
      "id": 14,
      "label": "Mazda Logos"
    },
    "floating": {
      "id": 15,
      "label": "Floating Logo"
    },
    "xmen": {
      "id": 16,
      "label": "X-Men"
    },
    "custom": {
      "id": 17,
      "label": "Custom Theme"
    }
  },
  "statusbar": {
    "main": {
      "id": 0,
      "label": "Remove Statusbar Background"
    },
    "opacity": {
      "id": 1,
      "label": "Statusbar Opacity"
    },
    "app": {
      "id": 2,
      "label": "App Title"
    },
    "clock": {
      "id": 3,
      "label": "Clock"
    },
    "notif": {
      "id": 4,
      "label": "Status Notifications"
    },
    "d2sbinst": {
      "id": 5,
      "label": "Date To Statusbar Mod"
    },
    "d2sbuninst": {
      "id": 6,
      "label": "Remove Date To Statusbar Mod"
    }
  },
  "uistyle": {
    "body": {
      "id": 0,
      "label": "Body Text (Audio Artist & Album)"
    },
    "listitem": {
      "id": 1,
      "label": "List Item"
    },
    "listitemdisabled": {
      "id": 2,
      "label": "Disabled List Item"
    },
    "title": {
      "id": 3,
      "label": "Song Title"
    },
    "radio": {
      "id": 4,
      "label": "Radio Station"
    },
    "ellipse": {
      "id": 6,
      "label": "Remove Ellipse"
    },
    "shadow": {
      "id": 8,
      "label": "Text Shadow"
    },
    "minicoins": {
      "id": 10,
      "label": "Smaller 'Coins'"
    },
    "minifocus": {
      "id": 11,
      "label": "Small Focused Coin"
    },
    "hideglow": {
      "id": 12,
      "label": "Remove Glow"
    },
    "fulltitles": {
      "id": 13,
      "label": "Full Width Titles"
    },
    "noalbm": {
      "id": 14,
      "label": "Hide Album Art"
    },
    "mainlabel": [{
      "id": 1,
      "label": "3D Text"
    }, {
      "id": 2,
      "label": "Hide Text"
    }, {
      "id": 3,
      "label": "Color Text"
    }],
    "layout": [{
      "id": 1,
      "label": "'Star Points' Layout"
    }, {
      "id": 2,
      "label": "'Star Points B' Layout"
    }, {
      "id": 3,
      "label": "'Inverted' Layout"
    }, {
      "id": 4,
      "label": "'FlatLine' Layout"
    }],
    "nobtnbg": { "id": 1, "label": "Behind Buttons" },
    "nonpbg": { "id": 2, "label": "Now Playing" },
    "nolistbg": { "id": 3, "label": "List View" },
    "nocallbg": { "id": 4, "label": "In Call" },
    "notextbg": { "id": 5, "label": "Text Messages" }
  },
  "speedcamOps": [{
    "id": 0,
    "label": "Europe With Mobile Cameras"
  }, {
    "id": 1,
    "label": "Europe Without Mobile Cameras"
  }, {
    "id": 2,
    "label": "Germany With Mobile Cameras"
  }, {
    "id": 3,
    "label": "Germany Without Mobile Cameras"
  }, {
    "id": 4,
    "label": "Turkey"
  }, {
    "id": 5,
    "label": "Use Your Own speedcam.txt file"
  }],
  "disclaimOps": [{
    "id": 0,
    "label": "Remove Completely"
  }, {
    "id": 1,
    "label": "Reduce Time To 0.5 seconds"
  }],
  "fuelOps": [{
    "id": 0,
    "label": "Km/L"
  }, {
    "id": 1,
    "label": "MPG"
  }],
  "d2sbOps": [{
    "id": 0,
    "label": "V1.0"
  }, {
    "id": 1,
    "label": "v3.3 (Date Localized)"
  }, {
    "id": 2,
    "label": "V3.3 (dd.mm.)"
  }, {
    "id": 3,
    "label": "V3.3 (mm/dd)"
  }],
  "speedoOps": {
    "lang": {
      "en": {
        "id": 0,
        "label": "English"
      },
      "de": {
        "id": 1,
        "label": "German"
      },
      "sp": {
        "id": 2,
        "label": "Spanish"
      },
      "pl": {
        "id": 3,
        "label": "Polish"
      },
      "sl": {
        "id": 4,
        "label": "Slovak"
      },
      "tk": {
        "id": 5,
        "label": "Turkish"
      },
      "fr": {
        "id": 6,
        "label": "French"
      },
      "it": {
        "id": 7,
        "label": "Italian"
      },
      "nl": {
        "id": 8,
        "label": "Dutch"
      }
    },
    "xph": {
      "mph": {
        "id": 10,
        "label": "MPH"
      },
      "kmh": {
        "id": 11,
        "label": "KM/H"
      }
    },
    "effic": {
      "kml": {
        "id": 40,
        "label": "km/L"
      },
      "lkm": {
        "id": 41,
        "label": "L/100km"
      }
    },
    "temperature": {
      "cel": {
        "id": 42,
        "label": "C"
      },
      "fer": {
        "id": 43,
        "label": "F"
      }
    },
    "sml": {
      "gps": {
        "id": 20,
        "label": "GPS Values"
      },
      "car": {
        "id": 21,
        "label": "Car Values"
      },
      "none": {
        "id": 22,
        "label": "Do Not Activate"
      }
    },
    "bg": {
      "ind": {
        "id": 30,
        "label": "Individual Background"
      },
      "orig": {
        "id": 31,
        "label": "Original Background"
      }
    },
    "color": ["Red", "Blue", "Green", "Purple", "Yellow", "Orange", "Pink", "Silver"],
    "mod": {
      "id": 50,
      "label": "Modded"
    },
    "modAlt": {
      "id": 51,
      "label": "Analog With Compass"
    },
    "opac": {
      "id": 40,
      "val": "0",
      "label": "Black Background Opacity? (To Reduce Visibility of Custom MZD Background Image) 0.0 (Fully Transparent) - 1.0 (Completely Black)"
    }
  },
  "tweakOps": [{
    "id": 1,
    "OpName": "Touchscreen While Moving",
    "INST": "Enable the touchscreen while moving",
    "DEINST": "Disable the touchscreen again while moving",
    "toolTip": "<h5>Touchscreen </h5>Allows the use of the touchscreen while driving.<br>Fix Cluster Compass: Some things will be disabled while driving but the touchscreen itself and the cluster compass will work",
    "img": "",
    "safetylvl": "safe",
    "extraOps": true,
    "advancedOp": false
  }, {
    "id": 2,
    "OpName": "No More Disclaimer",
    "INST": "Remove disclaimer completely",
    "DEINST": "Restore disclaimer (to 3.5 seconds)",
    "toolTip": "<h5>No More Disclaimer </h5>Completely remove the disclaimer or reduce the expansion time of the disclaimer from 3.5 to 0.5 seconds.",
    "img": "",
    "safetylvl": "safe",
    "extraOps": false,
    "advancedOp": false
  }, {
    "id": 3,
    "OpName": "Reverse Camera Safety Warning",
    "INST": "Remove the reverse camera safety warning",
    "DEINST": "Restore the safety warning label to the reverse camera",
    "toolTip": "<h5>Reverse Camera Safety Warning </h5>No security warning at the bottom when activating the rear camera.",
    "img": "",
    "safetylvl": "safe",
    "extraOps": false,
    "advancedOp": false
  }, {
    "id": 4,
    "OpName": "Semi-transparent parking sensor graphics",
    "INST": "Install semi-transparent parking sensor graphics",
    "DEINST": "Remove semi-transp. parking sensor graphics f. proximity sensors",
    "toolTip": "<h5>Semi-Transparent Parking Sensor Graphics. </h5>  Semitransparent parking sensor graphics for proximity sensors.  When activating the rear camera, the car is displayed at the top right corner.  The graphics now appear semitransparent by installing tweak.",
    "img": "semi-transparent_parking-sensors.jpg",
    "safetylvl": "safe",
    "extraOps": false,
    "advancedOp": false
  }, {
    "id": 5,
    "OpName": "Main Menu Loop",
    "INST": "Install Main Menu Loop",
    "DEINST": "Remove Main Menu Loop",
    "toolTip": "<h5>Main Menu Loop. </h5>Loop for the main menu.<br>You can jump from left to far right, and vice versa.",
    "img": "",
    "safetylvl": "safe",
    "extraOps": false,
    "advancedOp": false
  }, {
    "id": 6,
    "OpName": "Improved List Loop",
    "INST": "Install Improved List Loop",
    "DEINST": "Remove Improved List Loop",
    "toolTip": "<h5>Improved List Loop. </h5>Loop for all lists and submenu (music, contacts, etc.).<br>You can now jump from the top position of a list to the bottom and vice versa.",
    "img": "",
    "safetylvl": "safe",
    "extraOps": true,
    "advancedOp": false
  }, {
    "id": 7,
    "OpName": "Shorter Delay Mod",
    "INST": "Install Shorter Delay Mod",
    "DEINST": "Remove Shorter Delay Mod",
    "toolTip": "<h5>Shorter Delay Mod. </h5>Reduces the waiting time for switching between pages with the multi commander from 1.5 to 0.3 seconds.",
    "img": "",
    "safetylvl": "safe",
    "extraOps": false,
    "advancedOp": false
  }, {
    "id": 8,
    "OpName": "No More Beeps",
    "INST": "Disable All System Beeps",
    "DEINST": "Restore System Beeps",
    "toolTip": "<h5>No More Beeps</h5>Disable all 'Beeps' made by the system that are not silenced by the 'Settings > Sound > Beep' option.  This also includes the beeps that cannot be silenced by the settings option.",
    "img": "",
    "safetylvl": "safe",
    "extraOps": false,
    "advancedOp": false
  }, {
    "id": 9,
    "OpName": "Order of Audio Source List",
    "INST": "Change order of the audio source list",
    "DEINST": "Restore order of audio source list back to original",
    "toolTip": "<h5>Change Order of the Audio Source List.  </h5> The order of the audio source list is arranged as follows: <ui><li>USB_A</li> <li>USB_B</li> <li>btaudio</li> <li>AuxIn</li> <li>FMRadio</li> <li>DAB</li>  <li>CD</li> <li>SatRadio</li> <li>AhaRadio</li> <li>Pandora</li> <li>Stitcher</li> <li>amradio</li> <li>DVD</li> <li>TV</li></ui>",
    "img": "",
    "safetylvl": "warning",
    "extraOps": true,
    "advancedOp": false
  }, {
    "id": 10,
    "OpName": "Pause on mute",
    "INST": "Install Pause On Mute",
    "DEINST": "Remove Pause On Mute",
    "toolTip": "<h5>Pause On Mute. </h5>  When pressing mute (pressing the volume button) played media are also paused.",
    "img": "",
    "safetylvl": "safe",
    "extraOps": false,
    "advancedOp": false
  }, {
    "id": 11,
    "OpName": "Remove Message Reply",
    "INST": "Remove automatic message replies",
    "DEINST": "Restore automatic message replies",
    "toolTip": "<h5>Remove Message Replies </h5>Removes the text 'Sent from my Mazda Quick Text System' if answering messages.",
    "img": "",
    "safetylvl": "safe",
    "extraOps": false,
    "advancedOp": false
  }, {
    "id": 12,
    "OpName": "1 Sec Diag Menu",
    "INST": "Install 1 second diagnostic menu",
    "DEINST": "Remove 1 sec. diagnostic menu",
    "toolTip": "<h5>1 Sec Diag Menu </h5>Allows you to open the diagnostic menu by touching the clock at the top right of the <b>display settings menu</b> for one second.",
    "img": "",
    "safetylvl": "warning",
    "extraOps": false,
    "advancedOp": false
  }, {
    "id": 13,
    "OpName": "Boot Animation",
    "INST": "Disable boot animation",
    "DEINST": "Boot Animation enable again",
    "toolTip": "<h5>Boot Animation </h5>The boot animation that leads to the menu with the red buttons will be disabled.",
    "img": "",
    "safetylvl": "safe",
    "extraOps": true,
    "advancedOp": false
  }, {
    "id": 20,
    "OpName": "Statusbar Tweaks",
    "INST": "Install Statusbar Tweaks",
    "DEINST": "Remove Statusbar Tweaks",
    "toolTip": "<h5>Statusbar Mods </h5>Add some Color to your statusbar text.<br><h5>Change Colors For: </h5><h4>App Name: <small>Title of the app or media source. </small></h4><h4>Clock: <small>This one is pretty self explanatory. </small></h4><h4>Status Notification: <small>Navigation notifications </small></h4><strong>Remove Statusbar Background Image And <br>Adjust Statusbar Opacity (From 0-1: 0 = transparent, 1 = Black)  </strong><strong>Safe for all FW Versions</strong><br><h5>Date In Status Bar Mod. </h5>  Permanently visible date + icons by the clock, even if system messages are displayed.",
    "img": "mzd_datum_icons_all.jpg",
    "safetylvl": "safe",
    "extraOps": true,
    "advancedOp": false
  }, {
    "id": 26,
    "OpName": "USB Audio Mod",
    "INST": "Install USB Audio Mod",
    "DEINST": "Remove USB Audio Mod",
    "toolTip": "<h5>USB Audio Mod. <small>By: Enlsen</small> </h5><b>Patches The USB Audio App With These Mods:   <br><ol><li>Long press (click hold) folders/all songs to play</li><li>Adds new icon for USB root menu on the UMP control</li> <li>Removes \"More like this\" button from UMP control</li><li>Adds folders button to UMP control</li><li>Set folders and song list icons correctly (were switched) on UMP control</li><li>Removes trailing \"/\" character from folder names for list control and title of now playing</li><li>Adds folder and song icons to the list control</li><li>Adds folder and playlist icons to now playing</li></ol>",
    "img": "USBAudioMod.jpg",
    "safetylvl": "safe",
    "extraOps": true,
    "advancedOp": false
  }, {
    "id": 14,
    "OpName": "Bigger Album Art",
    "INST": "Install bigger album art cover",
    "DEINST": "Album art cover back to original",
    "toolTip": "<h5>Bigger Album Art </h5> You get a bigger album art graphic. Extra Options: Full Width Titles & Hide Album Art",
    "img": "full_titles.png",
    "safetylvl": "safe",
    "extraOps": true,
    "advancedOp": false
  }, {
    "id": 15,
    "OpName": "Remove Background Overlays",
    "INST": "Remove the background overlays",
    "DEINST": "Background behind buttons back to original",
    "toolTip": "<h5>No Background Behind Buttons </h5> Remove the background behind the buttons and other semi-transparent overlay backgrounds.  Overlays that can be removed: Now Playing, List View, In Call, Text Message View, and Behind Buttons",
    "img": "NoButtonBackground.jpg",
    "safetylvl": "safe",
    "extraOps": true,
    "advancedOp": false
  }, {
    "id": 16,
    "OpName": "Change Blank Album Art Frame",
    "INST": "Remove the blank album art frame",
    "DEINST": "Restore the blank album art frame",
    "toolTip": "<h5>Change Blank Album Art Frame </h5>The empty album cover frame is removed, which is displayed when there is no entry in the Gracenote database for the artist. Then the image of a radio is displayed, if there is no cover in the MP3 tag too. Supported image formats are: jpg, jpeg, and png (any size). Note: The image chosen will be resized to 146px x 146px <b>BUT NOT CROPPED</b> and converted to .png format",
    "img": "",
    "safetylvl": "safe",
    "extraOps": true,
    "advancedOp": false
  }, {
    "id": 17,
    "OpName": "Videoplayer",
    "INST": "Install videoplayer",
    "DEINST": "Remove videoplayer",
    "toolTip": "<h5>Videoplayer <span class='icon-video-camera2'></span> </h5> Add videoplayer app to the application menu.",
    "img": "",
    "safetylvl": "safe",
    "extraOps": true,
    "advancedOp": false
  }, {
    "id": 18,
    "OpName": "Swapfile",
    "INST": "Generate swapfile for media player v2",
    "DEINST": "Remove swapfile",
    "toolTip": "<h5>Swapfile </h5>The Swapfile will provide your system with an additional 1 GB of RAM running from the USB drive for playing videos.  The installation of the swap file must be done on a USB drive with music and/or movies, that remains in the car..  The installation files are automatically deleted, the drive may no longer be removed during operation, because the system will use it also as memory..  Only remove the USB drive if the MZD system is off.",
    "img": "",
    "safetylvl": "warning",
    "extraOps": true,
    "advancedOp": false
  }, {
    "id": 19,
    "OpName": "Speedometer",
    "INST": "Install speedometer",
    "DEINST": "Remove speedometer",
    "toolTip": "<h5>Speedometer With Compass in the Application Menu. </h5>  <ul><li>Below the speedometer is km/h or mph, depending on the setting</li> <li>Speed range up to 240 km/h</li> <li>Consumption values</li> <li>Optimized graphics modules with new speedometer pointer</li> <li>Small speedometer needle for top speed in the analog part</li> <li>The picture for the speedometer scale has different lengths or bright lines for 5, 10 and 20 km/h jumps</li> <li>Right table English or German and color / size optimized</li> <li>All numbers have a slight shadow around to better stand out from the background.</li> <li>On travel direction rotating compass central to the current speed</li> <li>Animated overlay in the status with GPS speed and direction of travel in each menu can be prepared by touch at the clock</li> <li>Latitude and longitude in the right table</li> <li>When the Navi or Rear Camera is started, it automatically appears</li></ul><br>For the small speedo in the status bar you have to install date_to_statusbar mod too. Therefore it will be automatically selected, if not already done.",
    "img": "mzd_SpeedoCompass.gif",
    "safetylvl": "safe",
    "extraOps": true,
    "advancedOp": false
  }, {
    "id": 22,
    "OpName": "Fuel Consumption Tweak",
    "INST": "Install Fuel Consumption Tweak",
    "DEINST": "Remove Fuel Consumption Tweak",
    "toolTip": "<h5>Fuel Consumption Tweak. </h5> Additional display of KM / L (or MPG).",
    "img": "FuelConsumptionTweak.jpg",
    "safetylvl": "safe",
    "extraOps": true,
    "advancedOp": false
  }, {
    "id": 24,
    "OpName": "Castscreen-receiver",
    "INST": "Install Castscreen-Receiver",
    "DEINST": "Remove castscreen-receiver",
    "toolTip": "<h5>Castscreen receiver. </h5>  After installation you can mirror the smartphone screen at the infotainment display (mirroring).  <ul><li>You have to install the <button class='w3-btn' onclick='openApkFolder()'>castscreen app</button> on your Android Phone (castscreen-1.0.apk) The app can be found in the 'config' folder of your USB drive</li> <li>activate the debug mode on your smartphone</li> <li>connect the smartphone with USB cable to the infotainment system</li> <li>start the app settings: H264, 800x480 @ 160, 1 mbps, then input 127.0.0.1 and press input receiver, then tap Start on right-up corner.</li></ul>.",
    "img": "",
    "safetylvl": "safe",
    "extraOps": true,
    "advancedOp": false
  }, {
    "id": 25,
    "OpName": "Android Auto Headunit App",
    "INST": "Install Android Auto Headunit App",
    "DEINST": "Remove Android Auto Headunit App",
    "toolTip": "<h5>Android Car Headunit app for the MZD Infotainment System. </h5>  <ol><li>Install the Android app from google play store</li><li> Connect the phone to USB and pair the phone bluetooth with the CMU </li><li> Android Auto will then start. If it does not try to open from the 'Applications' menu <li>3 ways to stop AA <ol><li>Press Home Button on the Mazda's Commander</li><li>Disconnect the USB cable</li><li>Use the onscreen menu 'Return to Mazda Connect' on last screen with speedo icon.</li></ol></ol></div>",
    "toolTip2": "",
    "img": "AndroidAuto.jpg",
    "safetylvl": "safe",
    "extraOps": true,
    "advancedOp": false
  }, {
    "id": 27,
    "OpName": "AIO Tweaks App",
    "INST": "Install AIO Tweaks App",
    "DEINST": "Remove AIO Tweaks App",
    "toolTip": "<div class='aio-help'><h5>AIO Tweaks App </h5> An experimental app by Trezdog44. <h5>This is an experimental app that I made to test the limits of app functionality.  For each success there were several failures.</h5><h6><strong>Every function in this app is <em>not</em> guaranteed to work</strong> but here are some useful and/or fun things you can do:</h6><ul><li>&#39;Apps&#39; Tab:<ul><li>Home: Goes home. This was the easy part.</li><li>Go to: USB A, USB B, Bluetooth (audio context).</li><li>Previous, Next - Works without changing contexts</li><li>Stop (and Start*) Android Auto Headunit process.<ul><li>Killing headunit process with allow Bluetooth calling to work correctly.</li><li>Starting the process does not work properly yet, reboot CMU to restart headunit process.</li></ul></li><li>Stop and Start Castscreen Receiver<ul><li>Useful for troubleshooting if it is not functioning correctly.  </li><li>Both of these do work but there is a possibility that a memory issue may prevent the process from properly starting in which case a reboot is required to allow the process to run.</li></ul></li></ul></li><li>&#39;Tweaks&#39; Tab:<ul><li>Many familiar AIO layout related tweaks that can be applied on the fly<ul><li>Applied tweaks are automatically saved to localStorage and saved tweaks are applied on boot.</li><li>Toggle each individual tweak on or off.</li><li>One button to reset all tweaks.</li><li><em>NOTE: AIO Tweaks App will not UNDO installed tweaks, they will mix and may result in unexpected and/or interesting layouts</em></li></ul></li></ul></li><li><p>&#39;Options&#39; Tab:</p><ul><li><p>Touchscreen: <em>NOTE: Changes to the touchscreen functionality are applied when the vehicle comes to a <strong>COMPLETE STOP</strong></em></p><ul><li>Enable Touchscreen and Menu</li><ul><li>Normally disabled menu items while driving ie. Text messages &amp; enter address for navigation,</li><li>Compass is disabled</li></ul><li>Enable Touchscreen and Compass</li><ul><li>Compass is functional</li><li>Menu items are disabled</lI></ul><li>Disable Touchscreen</li><ul><li>Touchscreen and Menu Items disabled</li><li><p>Compass is functional</p></li></ul></ul></li><li><p>Show Background: Show only background (any button to exit).</p></li><li>Reboot: To Reboot.</li></ul></li></ul></div>.",
    "img": "AIO_Tweaks-Screen.png",
    "safetylvl": "safe",
    "extraOps": true,
    "advancedOp": false
  }, {
    "id": 21,
    "OpName": "Media Order Patch & FLAC Support",
    "INST": "Enable Media Order Patch & FLAC Support",
    "DEINST": "Remove Media Order Patch & FLAC Support",
    "toolTip": "<h5>Media Order Patching & FLAC Support </h5>Music will be sorted alphabetically and not by date with new entries first.  FLAC music files will also work. <h6>Audio Order Patch & FLAC Support is only compatible with these FW Versions: </h6><div style='columns:5'>55.00.650A-NA  55.00.753A-NA  55.00.760A-NA  56.00.100A-ADR  56.00.230A-EU  56.00.240B-ADR  56.00.511A-EU  56.00.512A-EU  56.00.521A-NA  58.00.250A-NA  59.00.326A-ADR  59.00.331A-EU  56.00.513C-EU  56.00.513B-EU  56.00.513C-ADR  59.00.330A-ADR   59.00.342A-ADR   59.00.441A-NA  59.00.443C-EU</div>",
    "img": "",
    "safetylvl": "warning",
    "extraOps": false,
    "advancedOp": true
  }]
}
