5F

Audio (default=0x005F(95) full=0x1FFF(8191)):
mp3      = 0x0001
wma      = 0x0002
wav      = 0x0004
aac      = 0x0008
m4a      = 0x0010
m4b      = 0x0020
ogg/oga  = 0x0040
flac     = 0x0080
ac3      = 0x0100
cdda     = 0x0200
ape      = 0x0400
mp2      = 0x0800
aif/aiff = 0x1000

Video (default=0x0000(0) full=0x3FFF(16383)):
mpeg/mpeg1/mpeg2/mpg = 0x0001
wmv                  = 0x0002
avi                  = 0x0004
mp4/m4v              = 0x0008
asf                  = 0x0010
divx                 = 0x0020
rm                   = 0x0040
mov                  = 0x0080
3g/3g2/3gp2          = 0x0100
dat                  = 0x0200
ats                  = 0x0400
vob                  = 0x0800
mkv                  = 0x1000
flv                  = 0x2000


Image (default=0x00(0) full=0x3F(63):
bmp = 0x01
jpeg/jpg = 0x02
png = 0x04
gif = 0x08
tiff = 0x10
rgb565 = 0x20

Subtitle (default=0x0(0), full=0x7(7)):
srt = 0x01
sub = 0x02
ssa = 0x04

Playlist (default=0xF(15), full=0xF(15)):
pls = 0x1
m3u = 0x2
wpl = 0x4
asx = 0x8

ContentType (default=0x39(57) full=0x3F(63)):
audio = 0x01
video = 0x02
image = 0x04
playlist = 0x08
folder = 0x10
subtitle??? = 0x20